{
  "api_version": "1.0",
  "pagination": {
    "page": 1,
    "per_page": 20,
    "pages": 532,
    "count": 10635
  },
  "results": [
    {
      "update_date": "2017-01-01T00:05:13",
      "report_year": 2017,
      "report_type": "YE",
      "due_date": "2018-01-31",
      "create_date": "2017-01-01T00:05:13",
      "report_type_full": "YEAR-END"
    }
  ]
}