{
  "results": [
    {
      "report_type": "Q2",
      "fec_file_id": "FEC-1173153",
      "sub_id": "1071820170035541954",
      "house_personal_funds": null,
      "most_recent_file_number": null,
      "update_date": "2017-08-03T20:52:48",
      "ending_image_number": "201707170200174707",
      "candidate_name": null,
      "opposition_personal_funds": null,
      "beginning_image_number": "201707170200173893",
      "document_description": "JULY QUARTERLY 2017",
      "most_recent": null,
      "amendment_indicator": "N",
      "debts_owed_by_committee": 0,
      "request_type": null,
      "primary_general_indicator": "P",
      "senate_personal_funds": null,
      "net_donations": null,
      "committee_id": "C00411330",
      "committee_name": "FRIENDS OF BERNIE SANDERS",
      "total_receipts": 1289314,
      "receipt_date": "2017-07-14T00:00:00",
      "debts_owed_to_committee": 0,
      "cycle": 2018,
      "pages": 815,
      "cash_on_hand_end_period": 4852006,
      "total_individual_contributions": null,
      "amendment_version": null,
      "fec_url": "http://docquery.fec.gov/paper/posted/1173153.fec",
      "form_type": "F3",
      "html_url": null,
      "candidate_id": null,
      "amendment_chain": null,
      "election_year": null,
      "pdf_url": "http://docquery.fec.gov/pdf/893/201707170200173893/201707170200173893.pdf",
      "file_number": 1173153,
      "csv_url": "http://docquery.fec.gov/csv/153/1173153.csv",
      "document_type": null,
      "total_independent_expenditures": null,
      "document_type_full": null,
      "treasurer_name": null,
      "total_disbursements": 315139,
      "report_year": 2017,
      "coverage_start_date": "2017-04-01T00:00:00",
      "cash_on_hand_beginning_period": 3877831,
      "previous_file_number": -9502064,
      "report_type_full": "JULY QUARTERLY",
      "coverage_end_date": "2017-06-30T00:00:00",
      "is_amended": null,
      "means_filed": "paper",
      "total_communication_cost": null
    }
  ],
  "api_version": "1.0",
  "pagination": {
    "pages": 10,
    "page": 1,
    "count": 199,
    "per_page": 20
  }
}