{
  "api_version": "1.0",
  "pagination": {
    "page": 1,
    "per_page": 20,
    "pages": 155370,
    "count": 3107383
  },
  "results": [
    {
      "update_date": "2016-07-13T20:49:40",
      "coverage_start_date": "2016-04-01T00:00:00",
      "report_year": 2016,
      "cash_on_hand_end_period": null,
      "form_type": "F7",
      "is_amended": null,
      "senate_personal_funds": null,
      "committee_name": "TEXAS FARM BUREAU",
      "cycle": 2016,
      "request_type": null,
      "total_receipts": null,
      "total_independent_expenditures": null,
      "means_filed": "paper",
      "candidate_name": null,
      "pages": 3,
      "csv_url": "http://docquery.fec.gov/csv/726/1081726.csv",
      "report_type_full": "JULY QUARTERLY",
      "beginning_image_number": "201607070300079703",
      "net_donations": null,
      "opposition_personal_funds": null,
      "receipt_date": null,
      "total_disbursements": null,
      "debts_owed_by_committee": null,
      "fec_url": "http://docquery.fec.gov/paper/posted/1081726.fec",
      "sub_id": "1070720160028265398",
      "total_individual_contributions": null,
      "cash_on_hand_beginning_period": null,
      "document_description": "JULY QUARTERLY 2016",
      "treasurer_name": null,
      "candidate_id": null,
      "file_number": 1081726,
      "total_communication_cost": 7915,
      "coverage_end_date": "2016-06-30T00:00:00",
      "previous_file_number": null,
      "amendment_indicator": "N",
      "amendment_version": null,
      "ending_image_number": "201607070300079705",
      "election_year": null,
      "committee_id": "C70003165",
      "most_recent_file_number": null,
      "report_type": "Q2",
      "document_type_full": null,
      "fec_file_id": "FEC-1081726",
      "house_personal_funds": null,
      "primary_general_indicator": "P",
      "amendment_chain": null,
      "html_url": null,
      "debts_owed_to_committee": null,
      "most_recent": null,
      "document_type": null,
      "pdf_url": "http://docquery.fec.gov/pdf/703/201607070300079703/201607070300079703.pdf"
    }
  ]
}