{
  "api_version": "1.0",
  "pagination": {
    "pages": 371,
    "count": 7417,
    "page": 1,
    "per_page": 20
  },
  "results": [
    {
      "start_date": "2018-01-31",
      "category": "report-YE",
      "summary": "YEAR-END Report is Due Today",
      "location": null,
      "event_id": 2145,
      "url": null,
      "all_day": true,
      "state": [],
      "description": ": YEAR-END Report is Due Today",
      "end_date": null
    }
  ]
}